%TF.GenerationSoftware,KiCad,Pcbnew,(5.1.10-1-10_14)*%
%TF.CreationDate,2021-10-31T16:46:36+01:00*%
%TF.ProjectId,io_board,696f5f62-6f61-4726-942e-6b696361645f,rev?*%
%TF.SameCoordinates,Original*%
%TF.FileFunction,Profile,NP*%
%FSLAX46Y46*%
G04 Gerber Fmt 4.6, Leading zero omitted, Abs format (unit mm)*
G04 Created by KiCad (PCBNEW (5.1.10-1-10_14)) date 2021-10-31 16:46:36*
%MOMM*%
%LPD*%
G01*
G04 APERTURE LIST*
%TA.AperFunction,Profile*%
%ADD10C,0.050000*%
%TD*%
%TA.AperFunction,Profile*%
%ADD11C,0.100000*%
%TD*%
G04 APERTURE END LIST*
D10*
X0Y57912000D02*
G75*
G02*
X2159000Y60071000I2159000J0D01*
G01*
X78613000Y60071000D02*
G75*
G02*
X80772000Y57912000I0J-2159000D01*
G01*
X13970000Y0D02*
X0Y13970000D01*
D11*
X2159000Y60071000D02*
X78613000Y60071000D01*
X0Y13970000D02*
X0Y57912000D01*
X80772000Y0D02*
X13970000Y0D01*
X80772000Y57912000D02*
X80772000Y0D01*
M02*
