G04 #@! TF.GenerationSoftware,KiCad,Pcbnew,(5.1.10-1-10_14)*
G04 #@! TF.CreationDate,2021-10-31T19:01:14+01:00*
G04 #@! TF.ProjectId,cpu_backplane,6370755f-6261-4636-9b70-6c616e652e6b,rev?*
G04 #@! TF.SameCoordinates,Original*
G04 #@! TF.FileFunction,Profile,NP*
%FSLAX46Y46*%
G04 Gerber Fmt 4.6, Leading zero omitted, Abs format (unit mm)*
G04 Created by KiCad (PCBNEW (5.1.10-1-10_14)) date 2021-10-31 19:01:14*
%MOMM*%
%LPD*%
G01*
G04 APERTURE LIST*
G04 #@! TA.AperFunction,Profile*
%ADD10C,0.050000*%
G04 #@! TD*
G04 #@! TA.AperFunction,Profile*
%ADD11C,0.100000*%
G04 #@! TD*
G04 APERTURE END LIST*
D10*
X0Y-2159000D02*
G75*
G02*
X2159000Y0I2159000J0D01*
G01*
X2159000Y-99949000D02*
G75*
G02*
X0Y-97790000I0J2159000D01*
G01*
X149860000Y-97790000D02*
G75*
G02*
X147701000Y-99949000I-2159000J0D01*
G01*
X147320000Y0D02*
G75*
G02*
X149860000Y-2540000I0J-2540000D01*
G01*
D11*
X149860000Y-2540000D02*
X149860000Y-97790000D01*
X2159000Y0D02*
X147320000Y0D01*
X0Y-97790000D02*
X0Y-2159000D01*
X147701000Y-99949000D02*
X2159000Y-99949000D01*
M02*
