G04 #@! TF.GenerationSoftware,KiCad,Pcbnew,(5.1.10-1-10_14)*
G04 #@! TF.CreationDate,2021-10-31T19:01:14+01:00*
G04 #@! TF.ProjectId,cpu_backplane,6370755f-6261-4636-9b70-6c616e652e6b,rev?*
G04 #@! TF.SameCoordinates,Original*
G04 #@! TF.FileFunction,Paste,Top*
G04 #@! TF.FilePolarity,Positive*
%FSLAX46Y46*%
G04 Gerber Fmt 4.6, Leading zero omitted, Abs format (unit mm)*
G04 Created by KiCad (PCBNEW (5.1.10-1-10_14)) date 2021-10-31 19:01:14*
%MOMM*%
%LPD*%
G01*
G04 APERTURE LIST*
%ADD10R,1.900000X1.500000*%
%ADD11R,1.350000X0.400000*%
G04 APERTURE END LIST*
D10*
G04 #@! TO.C,J1*
X1493000Y-85931500D03*
D11*
X4193000Y-86931500D03*
X4193000Y-87581500D03*
X4193000Y-88231500D03*
X4193000Y-85631500D03*
X4193000Y-86281500D03*
D10*
X1493000Y-87931500D03*
G04 #@! TD*
M02*
