%TF.GenerationSoftware,KiCad,Pcbnew,(5.1.10-1-10_14)*%
%TF.CreationDate,2021-10-31T18:51:05+01:00*%
%TF.ProjectId,lcd_board,6c63645f-626f-4617-9264-2e6b69636164,rev?*%
%TF.SameCoordinates,Original*%
%TF.FileFunction,Legend,Bot*%
%TF.FilePolarity,Positive*%
%FSLAX46Y46*%
G04 Gerber Fmt 4.6, Leading zero omitted, Abs format (unit mm)*
G04 Created by KiCad (PCBNEW (5.1.10-1-10_14)) date 2021-10-31 18:51:05*
%MOMM*%
%LPD*%
G01*
G04 APERTURE LIST*
%ADD10C,0.300000*%
%ADD11C,0.010000*%
G04 APERTURE END LIST*
D10*
X68959619Y49641238D02*
X69912000Y49641238D01*
X69912000Y51641238D01*
X67150095Y49831714D02*
X67245333Y49736476D01*
X67531047Y49641238D01*
X67721523Y49641238D01*
X68007238Y49736476D01*
X68197714Y49926952D01*
X68292952Y50117428D01*
X68388190Y50498380D01*
X68388190Y50784095D01*
X68292952Y51165047D01*
X68197714Y51355523D01*
X68007238Y51546000D01*
X67721523Y51641238D01*
X67531047Y51641238D01*
X67245333Y51546000D01*
X67150095Y51450761D01*
X66292952Y49641238D02*
X66292952Y51641238D01*
X65816761Y51641238D01*
X65531047Y51546000D01*
X65340571Y51355523D01*
X65245333Y51165047D01*
X65150095Y50784095D01*
X65150095Y50498380D01*
X65245333Y50117428D01*
X65340571Y49926952D01*
X65531047Y49736476D01*
X65816761Y49641238D01*
X66292952Y49641238D01*
X62102476Y50688857D02*
X61816761Y50593619D01*
X61721523Y50498380D01*
X61626285Y50307904D01*
X61626285Y50022190D01*
X61721523Y49831714D01*
X61816761Y49736476D01*
X62007238Y49641238D01*
X62769142Y49641238D01*
X62769142Y51641238D01*
X62102476Y51641238D01*
X61912000Y51546000D01*
X61816761Y51450761D01*
X61721523Y51260285D01*
X61721523Y51069809D01*
X61816761Y50879333D01*
X61912000Y50784095D01*
X62102476Y50688857D01*
X62769142Y50688857D01*
X60388190Y51641238D02*
X60007238Y51641238D01*
X59816761Y51546000D01*
X59626285Y51355523D01*
X59531047Y50974571D01*
X59531047Y50307904D01*
X59626285Y49926952D01*
X59816761Y49736476D01*
X60007238Y49641238D01*
X60388190Y49641238D01*
X60578666Y49736476D01*
X60769142Y49926952D01*
X60864380Y50307904D01*
X60864380Y50974571D01*
X60769142Y51355523D01*
X60578666Y51546000D01*
X60388190Y51641238D01*
X58769142Y50212666D02*
X57816761Y50212666D01*
X58959619Y49641238D02*
X58292952Y51641238D01*
X57626285Y49641238D01*
X55816761Y49641238D02*
X56483428Y50593619D01*
X56959619Y49641238D02*
X56959619Y51641238D01*
X56197714Y51641238D01*
X56007238Y51546000D01*
X55912000Y51450761D01*
X55816761Y51260285D01*
X55816761Y50974571D01*
X55912000Y50784095D01*
X56007238Y50688857D01*
X56197714Y50593619D01*
X56959619Y50593619D01*
X54959619Y49641238D02*
X54959619Y51641238D01*
X54483428Y51641238D01*
X54197714Y51546000D01*
X54007238Y51355523D01*
X53912000Y51165047D01*
X53816761Y50784095D01*
X53816761Y50498380D01*
X53912000Y50117428D01*
X54007238Y49926952D01*
X54197714Y49736476D01*
X54483428Y49641238D01*
X54959619Y49641238D01*
X51721523Y51641238D02*
X51054857Y49641238D01*
X50388190Y51641238D01*
X48673904Y49641238D02*
X49816761Y49641238D01*
X49245333Y49641238D02*
X49245333Y51641238D01*
X49435809Y51355523D01*
X49626285Y51165047D01*
X49816761Y51069809D01*
X47816761Y49831714D02*
X47721523Y49736476D01*
X47816761Y49641238D01*
X47912000Y49736476D01*
X47816761Y49831714D01*
X47816761Y49641238D01*
X46483428Y51641238D02*
X46292952Y51641238D01*
X46102476Y51546000D01*
X46007238Y51450761D01*
X45912000Y51260285D01*
X45816761Y50879333D01*
X45816761Y50403142D01*
X45912000Y50022190D01*
X46007238Y49831714D01*
X46102476Y49736476D01*
X46292952Y49641238D01*
X46483428Y49641238D01*
X46673904Y49736476D01*
X46769142Y49831714D01*
X46864380Y50022190D01*
X46959619Y50403142D01*
X46959619Y50879333D01*
X46864380Y51260285D01*
X46769142Y51450761D01*
X46673904Y51546000D01*
X46483428Y51641238D01*
D11*
%TO.C,G\u002A\u002A\u002A*%
G36*
X68730709Y58594562D02*
G01*
X68470601Y58594525D01*
X68240092Y58594367D01*
X68037032Y58593981D01*
X67859270Y58593259D01*
X67704654Y58592093D01*
X67571035Y58590375D01*
X67456260Y58587999D01*
X67358180Y58584856D01*
X67274644Y58580840D01*
X67203500Y58575841D01*
X67142599Y58569753D01*
X67089789Y58562469D01*
X67042919Y58553880D01*
X66999838Y58543879D01*
X66958397Y58532358D01*
X66916443Y58519211D01*
X66871827Y58504328D01*
X66862284Y58501096D01*
X66654001Y58414185D01*
X66457691Y58300043D01*
X66276228Y58161668D01*
X66112489Y58002059D01*
X65969348Y57824214D01*
X65849680Y57631132D01*
X65756363Y57425811D01*
X65716646Y57306466D01*
X65665798Y57077642D01*
X65643643Y56844746D01*
X65649829Y56612007D01*
X65684005Y56383651D01*
X65745817Y56163907D01*
X65827905Y55970761D01*
X65943362Y55775222D01*
X66084433Y55593794D01*
X66247354Y55429771D01*
X66428364Y55286447D01*
X66623698Y55167116D01*
X66829594Y55075071D01*
X66865965Y55062173D01*
X66916153Y55045436D01*
X66963305Y55030990D01*
X67010110Y55018668D01*
X67059256Y55008300D01*
X67113431Y54999719D01*
X67175323Y54992757D01*
X67247622Y54987245D01*
X67333015Y54983014D01*
X67434190Y54979897D01*
X67553837Y54977725D01*
X67694643Y54976331D01*
X67859297Y54975545D01*
X68050487Y54975199D01*
X68256642Y54975125D01*
X69262625Y54975125D01*
X69262625Y53165375D01*
X70167500Y53165375D01*
X70167500Y55879038D01*
X67286188Y55887938D01*
X67181855Y55923422D01*
X67033720Y55989991D01*
X66896422Y56083673D01*
X66775190Y56200332D01*
X66689612Y56313026D01*
X66615236Y56455771D01*
X66569478Y56608644D01*
X66552542Y56767604D01*
X66564632Y56928607D01*
X66605955Y57087611D01*
X66645534Y57181750D01*
X66695075Y57262971D01*
X66764989Y57350190D01*
X66847425Y57435541D01*
X66934531Y57511158D01*
X67018455Y57569171D01*
X67048063Y57585054D01*
X67086511Y57603672D01*
X67120994Y57619661D01*
X67154170Y57633238D01*
X67188697Y57644618D01*
X67227232Y57654016D01*
X67272433Y57661648D01*
X67326957Y57667730D01*
X67393462Y57672478D01*
X67474606Y57676106D01*
X67573047Y57678831D01*
X67691441Y57680869D01*
X67832448Y57682434D01*
X67998723Y57683742D01*
X68192926Y57685010D01*
X68287479Y57685608D01*
X69272895Y57691874D01*
X69724062Y58143250D01*
X70175228Y58594625D01*
X68730709Y58594562D01*
G37*
X68730709Y58594562D02*
X68470601Y58594525D01*
X68240092Y58594367D01*
X68037032Y58593981D01*
X67859270Y58593259D01*
X67704654Y58592093D01*
X67571035Y58590375D01*
X67456260Y58587999D01*
X67358180Y58584856D01*
X67274644Y58580840D01*
X67203500Y58575841D01*
X67142599Y58569753D01*
X67089789Y58562469D01*
X67042919Y58553880D01*
X66999838Y58543879D01*
X66958397Y58532358D01*
X66916443Y58519211D01*
X66871827Y58504328D01*
X66862284Y58501096D01*
X66654001Y58414185D01*
X66457691Y58300043D01*
X66276228Y58161668D01*
X66112489Y58002059D01*
X65969348Y57824214D01*
X65849680Y57631132D01*
X65756363Y57425811D01*
X65716646Y57306466D01*
X65665798Y57077642D01*
X65643643Y56844746D01*
X65649829Y56612007D01*
X65684005Y56383651D01*
X65745817Y56163907D01*
X65827905Y55970761D01*
X65943362Y55775222D01*
X66084433Y55593794D01*
X66247354Y55429771D01*
X66428364Y55286447D01*
X66623698Y55167116D01*
X66829594Y55075071D01*
X66865965Y55062173D01*
X66916153Y55045436D01*
X66963305Y55030990D01*
X67010110Y55018668D01*
X67059256Y55008300D01*
X67113431Y54999719D01*
X67175323Y54992757D01*
X67247622Y54987245D01*
X67333015Y54983014D01*
X67434190Y54979897D01*
X67553837Y54977725D01*
X67694643Y54976331D01*
X67859297Y54975545D01*
X68050487Y54975199D01*
X68256642Y54975125D01*
X69262625Y54975125D01*
X69262625Y53165375D01*
X70167500Y53165375D01*
X70167500Y55879038D01*
X67286188Y55887938D01*
X67181855Y55923422D01*
X67033720Y55989991D01*
X66896422Y56083673D01*
X66775190Y56200332D01*
X66689612Y56313026D01*
X66615236Y56455771D01*
X66569478Y56608644D01*
X66552542Y56767604D01*
X66564632Y56928607D01*
X66605955Y57087611D01*
X66645534Y57181750D01*
X66695075Y57262971D01*
X66764989Y57350190D01*
X66847425Y57435541D01*
X66934531Y57511158D01*
X67018455Y57569171D01*
X67048063Y57585054D01*
X67086511Y57603672D01*
X67120994Y57619661D01*
X67154170Y57633238D01*
X67188697Y57644618D01*
X67227232Y57654016D01*
X67272433Y57661648D01*
X67326957Y57667730D01*
X67393462Y57672478D01*
X67474606Y57676106D01*
X67573047Y57678831D01*
X67691441Y57680869D01*
X67832448Y57682434D01*
X67998723Y57683742D01*
X68192926Y57685010D01*
X68287479Y57685608D01*
X69272895Y57691874D01*
X69724062Y58143250D01*
X70175228Y58594625D01*
X68730709Y58594562D01*
G36*
X61245750Y53165375D02*
G01*
X64867881Y53165375D01*
X64426034Y53617538D01*
X63984188Y54069700D01*
X61245750Y54070250D01*
X61245750Y53165375D01*
G37*
X61245750Y53165375D02*
X64867881Y53165375D01*
X64426034Y53617538D01*
X63984188Y54069700D01*
X61245750Y54070250D01*
X61245750Y53165375D01*
G36*
X56720269Y56800727D02*
G01*
X56608217Y56576823D01*
X56500160Y56360748D01*
X56396945Y56154205D01*
X56299419Y55958894D01*
X56208430Y55776517D01*
X56124823Y55608775D01*
X56049446Y55457369D01*
X55983145Y55324000D01*
X55926768Y55210369D01*
X55881162Y55118177D01*
X55847173Y55049126D01*
X55825647Y55004917D01*
X55817433Y54987251D01*
X55817376Y54987032D01*
X55832406Y54984141D01*
X55875438Y54981503D01*
X55942722Y54979207D01*
X56030511Y54977340D01*
X56135056Y54975990D01*
X56252609Y54975245D01*
X56324522Y54975125D01*
X56832543Y54975125D01*
X57225353Y55760938D01*
X57298719Y55907418D01*
X57367912Y56045012D01*
X57431628Y56171163D01*
X57488560Y56283312D01*
X57537404Y56378902D01*
X57576856Y56455376D01*
X57605609Y56510176D01*
X57622358Y56540744D01*
X57626176Y56546410D01*
X57634178Y56532460D01*
X57655509Y56491861D01*
X57689289Y56426354D01*
X57734635Y56337682D01*
X57790665Y56227588D01*
X57856497Y56097812D01*
X57931249Y55950098D01*
X58014040Y55786187D01*
X58103987Y55607822D01*
X58200208Y55416745D01*
X58301822Y55214698D01*
X58407947Y55003422D01*
X58482063Y54855722D01*
X59329937Y53165375D01*
X60340894Y53165375D01*
X58981590Y55883946D01*
X57622286Y58602516D01*
X56720269Y56800727D01*
G37*
X56720269Y56800727D02*
X56608217Y56576823D01*
X56500160Y56360748D01*
X56396945Y56154205D01*
X56299419Y55958894D01*
X56208430Y55776517D01*
X56124823Y55608775D01*
X56049446Y55457369D01*
X55983145Y55324000D01*
X55926768Y55210369D01*
X55881162Y55118177D01*
X55847173Y55049126D01*
X55825647Y55004917D01*
X55817433Y54987251D01*
X55817376Y54987032D01*
X55832406Y54984141D01*
X55875438Y54981503D01*
X55942722Y54979207D01*
X56030511Y54977340D01*
X56135056Y54975990D01*
X56252609Y54975245D01*
X56324522Y54975125D01*
X56832543Y54975125D01*
X57225353Y55760938D01*
X57298719Y55907418D01*
X57367912Y56045012D01*
X57431628Y56171163D01*
X57488560Y56283312D01*
X57537404Y56378902D01*
X57576856Y56455376D01*
X57605609Y56510176D01*
X57622358Y56540744D01*
X57626176Y56546410D01*
X57634178Y56532460D01*
X57655509Y56491861D01*
X57689289Y56426354D01*
X57734635Y56337682D01*
X57790665Y56227588D01*
X57856497Y56097812D01*
X57931249Y55950098D01*
X58014040Y55786187D01*
X58103987Y55607822D01*
X58200208Y55416745D01*
X58301822Y55214698D01*
X58407947Y55003422D01*
X58482063Y54855722D01*
X59329937Y53165375D01*
X60340894Y53165375D01*
X58981590Y55883946D01*
X57622286Y58602516D01*
X56720269Y56800727D01*
G36*
X55137679Y53628220D02*
G01*
X55082060Y53519140D01*
X55031408Y53419185D01*
X54987464Y53331839D01*
X54951969Y53260588D01*
X54926666Y53208917D01*
X54913294Y53180310D01*
X54911625Y53175783D01*
X54926872Y53173246D01*
X54970096Y53170933D01*
X55037528Y53168921D01*
X55125395Y53167288D01*
X55229926Y53166112D01*
X55347351Y53165472D01*
X55415786Y53165375D01*
X55919947Y53165375D01*
X56146000Y53617813D01*
X56372053Y54070250D01*
X55363733Y54070250D01*
X55137679Y53628220D01*
G37*
X55137679Y53628220D02*
X55082060Y53519140D01*
X55031408Y53419185D01*
X54987464Y53331839D01*
X54951969Y53260588D01*
X54926666Y53208917D01*
X54913294Y53180310D01*
X54911625Y53175783D01*
X54926872Y53173246D01*
X54970096Y53170933D01*
X55037528Y53168921D01*
X55125395Y53167288D01*
X55229926Y53166112D01*
X55347351Y53165472D01*
X55415786Y53165375D01*
X55919947Y53165375D01*
X56146000Y53617813D01*
X56372053Y54070250D01*
X55363733Y54070250D01*
X55137679Y53628220D01*
G36*
X56828532Y58567469D02*
G01*
X56812795Y58553255D01*
X56774771Y58519008D01*
X56715787Y58465920D01*
X56637168Y58395183D01*
X56540240Y58307990D01*
X56426329Y58205534D01*
X56296761Y58089006D01*
X56152862Y57959599D01*
X55995956Y57818505D01*
X55827372Y57666917D01*
X55648433Y57506027D01*
X55460466Y57337027D01*
X55264797Y57161109D01*
X55062751Y56979467D01*
X55022750Y56943506D01*
X53252688Y55352235D01*
X53248644Y56973430D01*
X53244601Y58594625D01*
X52339875Y58594625D01*
X52339875Y55880000D01*
X52339898Y55589003D01*
X52339965Y55306688D01*
X52340074Y55034683D01*
X52340221Y54774611D01*
X52340406Y54528098D01*
X52340625Y54296768D01*
X52340877Y54082248D01*
X52341158Y53886162D01*
X52341467Y53710135D01*
X52341800Y53555792D01*
X52342157Y53424759D01*
X52342533Y53318660D01*
X52342928Y53239121D01*
X52343338Y53187766D01*
X52343761Y53166221D01*
X52343844Y53165632D01*
X52355888Y53176086D01*
X52390281Y53206637D01*
X52445762Y53256154D01*
X52521071Y53323506D01*
X52614947Y53407561D01*
X52726129Y53507190D01*
X52853356Y53621261D01*
X52995366Y53748642D01*
X53150900Y53888204D01*
X53318696Y54038816D01*
X53497494Y54199345D01*
X53686031Y54368663D01*
X53883049Y54545636D01*
X54087284Y54729135D01*
X54213125Y54842220D01*
X54428558Y55035817D01*
X54642062Y55227666D01*
X54852004Y55416297D01*
X55056747Y55600242D01*
X55254656Y55778031D01*
X55444094Y55948195D01*
X55623428Y56109266D01*
X55791021Y56259776D01*
X55945237Y56398253D01*
X56084441Y56523231D01*
X56206997Y56633240D01*
X56311270Y56726812D01*
X56395625Y56802476D01*
X56458425Y56858765D01*
X56470965Y56869995D01*
X56863491Y57221438D01*
X56863871Y57910799D01*
X56864250Y58600159D01*
X56828532Y58567469D01*
G37*
X56828532Y58567469D02*
X56812795Y58553255D01*
X56774771Y58519008D01*
X56715787Y58465920D01*
X56637168Y58395183D01*
X56540240Y58307990D01*
X56426329Y58205534D01*
X56296761Y58089006D01*
X56152862Y57959599D01*
X55995956Y57818505D01*
X55827372Y57666917D01*
X55648433Y57506027D01*
X55460466Y57337027D01*
X55264797Y57161109D01*
X55062751Y56979467D01*
X55022750Y56943506D01*
X53252688Y55352235D01*
X53248644Y56973430D01*
X53244601Y58594625D01*
X52339875Y58594625D01*
X52339875Y55880000D01*
X52339898Y55589003D01*
X52339965Y55306688D01*
X52340074Y55034683D01*
X52340221Y54774611D01*
X52340406Y54528098D01*
X52340625Y54296768D01*
X52340877Y54082248D01*
X52341158Y53886162D01*
X52341467Y53710135D01*
X52341800Y53555792D01*
X52342157Y53424759D01*
X52342533Y53318660D01*
X52342928Y53239121D01*
X52343338Y53187766D01*
X52343761Y53166221D01*
X52343844Y53165632D01*
X52355888Y53176086D01*
X52390281Y53206637D01*
X52445762Y53256154D01*
X52521071Y53323506D01*
X52614947Y53407561D01*
X52726129Y53507190D01*
X52853356Y53621261D01*
X52995366Y53748642D01*
X53150900Y53888204D01*
X53318696Y54038816D01*
X53497494Y54199345D01*
X53686031Y54368663D01*
X53883049Y54545636D01*
X54087284Y54729135D01*
X54213125Y54842220D01*
X54428558Y55035817D01*
X54642062Y55227666D01*
X54852004Y55416297D01*
X55056747Y55600242D01*
X55254656Y55778031D01*
X55444094Y55948195D01*
X55623428Y56109266D01*
X55791021Y56259776D01*
X55945237Y56398253D01*
X56084441Y56523231D01*
X56206997Y56633240D01*
X56311270Y56726812D01*
X56395625Y56802476D01*
X56458425Y56858765D01*
X56470965Y56869995D01*
X56863491Y57221438D01*
X56863871Y57910799D01*
X56864250Y58600159D01*
X56828532Y58567469D01*
G36*
X48384682Y58585742D02*
G01*
X48248475Y58578154D01*
X48131877Y58565496D01*
X48093313Y58559127D01*
X47811231Y58490718D01*
X47537501Y58393094D01*
X47275529Y58267935D01*
X47028720Y58116922D01*
X46800478Y57941736D01*
X46746781Y57894417D01*
X46638498Y57796315D01*
X46715031Y57717927D01*
X46749910Y57683020D01*
X46803009Y57630916D01*
X46869525Y57566280D01*
X46944653Y57493776D01*
X47023589Y57418068D01*
X47041396Y57401057D01*
X47291228Y57162576D01*
X47374771Y57238201D01*
X47546778Y57373146D01*
X47738327Y57485888D01*
X47944354Y57574285D01*
X48159792Y57636198D01*
X48379577Y57669485D01*
X48398907Y57670970D01*
X48653006Y57674935D01*
X48894215Y57650112D01*
X49122221Y57596610D01*
X49336710Y57514541D01*
X49537368Y57404016D01*
X49723881Y57265145D01*
X49831430Y57165706D01*
X49992283Y56983255D01*
X50127597Y56783882D01*
X50235689Y56570472D01*
X50314878Y56345909D01*
X50319550Y56328903D01*
X50334690Y56270104D01*
X50345686Y56218432D01*
X50353189Y56166887D01*
X50357853Y56108469D01*
X50360328Y56036177D01*
X50361267Y55943009D01*
X50361366Y55880000D01*
X50360995Y55772291D01*
X50359450Y55689325D01*
X50356076Y55624104D01*
X50350223Y55569626D01*
X50341238Y55518890D01*
X50328469Y55464895D01*
X50319550Y55431098D01*
X50273140Y55287609D01*
X50211113Y55137810D01*
X50139347Y54994641D01*
X50068448Y54877958D01*
X49967361Y54746543D01*
X49844397Y54614730D01*
X49707725Y54489946D01*
X49565513Y54379619D01*
X49425930Y54291177D01*
X49418875Y54287304D01*
X49280505Y54221701D01*
X49128040Y54166154D01*
X48971085Y54123290D01*
X48819244Y54095739D01*
X48683560Y54086125D01*
X48580295Y54086125D01*
X48054378Y53737849D01*
X47939031Y53661203D01*
X47832263Y53589757D01*
X47736918Y53525450D01*
X47655840Y53470224D01*
X47591872Y53426018D01*
X47547858Y53394775D01*
X47526641Y53378433D01*
X47525137Y53376693D01*
X47537750Y53365887D01*
X47575595Y53348895D01*
X47633159Y53327455D01*
X47704929Y53303305D01*
X47785392Y53278182D01*
X47869034Y53253824D01*
X47950342Y53231968D01*
X48023804Y53214351D01*
X48069500Y53205133D01*
X48149851Y53194128D01*
X48252473Y53185032D01*
X48369617Y53178062D01*
X48493532Y53173430D01*
X48616466Y53171353D01*
X48730669Y53172046D01*
X48828389Y53175723D01*
X48898666Y53182143D01*
X49105681Y53217822D01*
X49299774Y53267012D01*
X49491016Y53332877D01*
X49689477Y53418580D01*
X49760188Y53452701D01*
X50020922Y53598419D01*
X50259773Y53767051D01*
X50476356Y53958213D01*
X50670286Y54171525D01*
X50841179Y54406604D01*
X50988651Y54663070D01*
X50997899Y54681438D01*
X51117543Y54952986D01*
X51205647Y55225367D01*
X51262419Y55499528D01*
X51288069Y55776419D01*
X51286789Y55991125D01*
X51257680Y56287436D01*
X51199291Y56571483D01*
X51111606Y56843301D01*
X50994611Y57102923D01*
X50848291Y57350380D01*
X50672632Y57585707D01*
X50494105Y57782448D01*
X50277298Y57979418D01*
X50041271Y58151792D01*
X49788284Y58298355D01*
X49520596Y58417893D01*
X49240467Y58509191D01*
X49065373Y58550311D01*
X48957327Y58566925D01*
X48826821Y58578852D01*
X48682268Y58586015D01*
X48532084Y58588337D01*
X48384682Y58585742D01*
G37*
X48384682Y58585742D02*
X48248475Y58578154D01*
X48131877Y58565496D01*
X48093313Y58559127D01*
X47811231Y58490718D01*
X47537501Y58393094D01*
X47275529Y58267935D01*
X47028720Y58116922D01*
X46800478Y57941736D01*
X46746781Y57894417D01*
X46638498Y57796315D01*
X46715031Y57717927D01*
X46749910Y57683020D01*
X46803009Y57630916D01*
X46869525Y57566280D01*
X46944653Y57493776D01*
X47023589Y57418068D01*
X47041396Y57401057D01*
X47291228Y57162576D01*
X47374771Y57238201D01*
X47546778Y57373146D01*
X47738327Y57485888D01*
X47944354Y57574285D01*
X48159792Y57636198D01*
X48379577Y57669485D01*
X48398907Y57670970D01*
X48653006Y57674935D01*
X48894215Y57650112D01*
X49122221Y57596610D01*
X49336710Y57514541D01*
X49537368Y57404016D01*
X49723881Y57265145D01*
X49831430Y57165706D01*
X49992283Y56983255D01*
X50127597Y56783882D01*
X50235689Y56570472D01*
X50314878Y56345909D01*
X50319550Y56328903D01*
X50334690Y56270104D01*
X50345686Y56218432D01*
X50353189Y56166887D01*
X50357853Y56108469D01*
X50360328Y56036177D01*
X50361267Y55943009D01*
X50361366Y55880000D01*
X50360995Y55772291D01*
X50359450Y55689325D01*
X50356076Y55624104D01*
X50350223Y55569626D01*
X50341238Y55518890D01*
X50328469Y55464895D01*
X50319550Y55431098D01*
X50273140Y55287609D01*
X50211113Y55137810D01*
X50139347Y54994641D01*
X50068448Y54877958D01*
X49967361Y54746543D01*
X49844397Y54614730D01*
X49707725Y54489946D01*
X49565513Y54379619D01*
X49425930Y54291177D01*
X49418875Y54287304D01*
X49280505Y54221701D01*
X49128040Y54166154D01*
X48971085Y54123290D01*
X48819244Y54095739D01*
X48683560Y54086125D01*
X48580295Y54086125D01*
X48054378Y53737849D01*
X47939031Y53661203D01*
X47832263Y53589757D01*
X47736918Y53525450D01*
X47655840Y53470224D01*
X47591872Y53426018D01*
X47547858Y53394775D01*
X47526641Y53378433D01*
X47525137Y53376693D01*
X47537750Y53365887D01*
X47575595Y53348895D01*
X47633159Y53327455D01*
X47704929Y53303305D01*
X47785392Y53278182D01*
X47869034Y53253824D01*
X47950342Y53231968D01*
X48023804Y53214351D01*
X48069500Y53205133D01*
X48149851Y53194128D01*
X48252473Y53185032D01*
X48369617Y53178062D01*
X48493532Y53173430D01*
X48616466Y53171353D01*
X48730669Y53172046D01*
X48828389Y53175723D01*
X48898666Y53182143D01*
X49105681Y53217822D01*
X49299774Y53267012D01*
X49491016Y53332877D01*
X49689477Y53418580D01*
X49760188Y53452701D01*
X50020922Y53598419D01*
X50259773Y53767051D01*
X50476356Y53958213D01*
X50670286Y54171525D01*
X50841179Y54406604D01*
X50988651Y54663070D01*
X50997899Y54681438D01*
X51117543Y54952986D01*
X51205647Y55225367D01*
X51262419Y55499528D01*
X51288069Y55776419D01*
X51286789Y55991125D01*
X51257680Y56287436D01*
X51199291Y56571483D01*
X51111606Y56843301D01*
X50994611Y57102923D01*
X50848291Y57350380D01*
X50672632Y57585707D01*
X50494105Y57782448D01*
X50277298Y57979418D01*
X50041271Y58151792D01*
X49788284Y58298355D01*
X49520596Y58417893D01*
X49240467Y58509191D01*
X49065373Y58550311D01*
X48957327Y58566925D01*
X48826821Y58578852D01*
X48682268Y58586015D01*
X48532084Y58588337D01*
X48384682Y58585742D01*
G36*
X45466000Y57237313D02*
G01*
X46823243Y55880000D01*
X45466000Y54522688D01*
X44108758Y53165375D01*
X44751660Y53165388D01*
X45394563Y53165400D01*
X46751875Y54510794D01*
X46925001Y54682499D01*
X47091798Y54848122D01*
X47250883Y55006280D01*
X47400872Y55155587D01*
X47540380Y55294660D01*
X47668025Y55422115D01*
X47782421Y55536567D01*
X47882186Y55636632D01*
X47965934Y55720926D01*
X48032283Y55788064D01*
X48079848Y55836663D01*
X48107245Y55865338D01*
X48113720Y55872911D01*
X48103240Y55885998D01*
X48071543Y55920020D01*
X48019999Y55973597D01*
X47949977Y56045352D01*
X47862847Y56133903D01*
X47759978Y56237873D01*
X47642739Y56355882D01*
X47512501Y56486552D01*
X47370632Y56628502D01*
X47218503Y56780354D01*
X47057483Y56940730D01*
X46888941Y57108248D01*
X46754001Y57242130D01*
X45389750Y58594625D01*
X44108758Y58594625D01*
X45466000Y57237313D01*
G37*
X45466000Y57237313D02*
X46823243Y55880000D01*
X45466000Y54522688D01*
X44108758Y53165375D01*
X44751660Y53165388D01*
X45394563Y53165400D01*
X46751875Y54510794D01*
X46925001Y54682499D01*
X47091798Y54848122D01*
X47250883Y55006280D01*
X47400872Y55155587D01*
X47540380Y55294660D01*
X47668025Y55422115D01*
X47782421Y55536567D01*
X47882186Y55636632D01*
X47965934Y55720926D01*
X48032283Y55788064D01*
X48079848Y55836663D01*
X48107245Y55865338D01*
X48113720Y55872911D01*
X48103240Y55885998D01*
X48071543Y55920020D01*
X48019999Y55973597D01*
X47949977Y56045352D01*
X47862847Y56133903D01*
X47759978Y56237873D01*
X47642739Y56355882D01*
X47512501Y56486552D01*
X47370632Y56628502D01*
X47218503Y56780354D01*
X47057483Y56940730D01*
X46888941Y57108248D01*
X46754001Y57242130D01*
X45389750Y58594625D01*
X44108758Y58594625D01*
X45466000Y57237313D01*
G36*
X63960375Y55315341D02*
G01*
X64406213Y54859483D01*
X64503772Y54760090D01*
X64594672Y54668169D01*
X64676480Y54586130D01*
X64746761Y54516385D01*
X64803081Y54461343D01*
X64843006Y54423414D01*
X64864101Y54405009D01*
X64866588Y54403625D01*
X64868612Y54419291D01*
X64870517Y54465449D01*
X64872294Y54540842D01*
X64873934Y54644213D01*
X64875429Y54774304D01*
X64876770Y54929859D01*
X64877948Y55109620D01*
X64878954Y55312329D01*
X64879780Y55536730D01*
X64880417Y55781565D01*
X64880856Y56045576D01*
X64881089Y56327507D01*
X64881125Y56499125D01*
X64881125Y58594625D01*
X63960375Y58594625D01*
X63960375Y55315341D01*
G37*
X63960375Y55315341D02*
X64406213Y54859483D01*
X64503772Y54760090D01*
X64594672Y54668169D01*
X64676480Y54586130D01*
X64746761Y54516385D01*
X64803081Y54461343D01*
X64843006Y54423414D01*
X64864101Y54405009D01*
X64866588Y54403625D01*
X64868612Y54419291D01*
X64870517Y54465449D01*
X64872294Y54540842D01*
X64873934Y54644213D01*
X64875429Y54774304D01*
X64876770Y54929859D01*
X64877948Y55109620D01*
X64878954Y55312329D01*
X64879780Y55536730D01*
X64880417Y55781565D01*
X64880856Y56045576D01*
X64881089Y56327507D01*
X64881125Y56499125D01*
X64881125Y58594625D01*
X63960375Y58594625D01*
X63960375Y55315341D01*
%TD*%
M02*
